modelingWB/test1/gemoc-gen/execution/execution-20191014_225149/vcdFromSimu.vcd
$date 
Mon Oct 14 22:51:56 CEST 2019
$end

$version 
VCD Generation 2.1.0
$end

$comment alias zaza_0__mainBlock__zaza_0_time "zaza_0::mainBlock::zaza_0_time" $end
$comment alias zaza_0__mainBlock__a1_1_readIt "zaza_0::mainBlock::a1_1_readIt" $end
$comment alias zaza_0__mainBlock__a2_2_writeIt "zaza_0::mainBlock::a2_2_writeIt" $end
$comment alias zaza_0__mainBlock__a1_1_transformIt "zaza_0::mainBlock::a1_1_transformIt" $end
$comment alias zaza_0__mainBlock__a1_1_startIt "zaza_0::mainBlock::a1_1_startIt" $end
$comment alias zaza_0__mainBlock__a1_1_writeIt "zaza_0::mainBlock::a1_1_writeIt" $end
$comment alias zaza_0__mainBlock__a2_2_readIt "zaza_0::mainBlock::a2_2_readIt" $end
$comment alias zaza_0__mainBlock__c1_3_transferIt "zaza_0::mainBlock::c1_3_transferIt" $end
$comment alias zaza_0__mainBlock__a1_1_stopIt "zaza_0::mainBlock::a1_1_stopIt" $end
$comment alias zaza_0__mainBlock__a2_2_stopIt "zaza_0::mainBlock::a2_2_stopIt" $end
$comment alias zaza_0__mainBlock__a2_2_startIt "zaza_0::mainBlock::a2_2_startIt" $end
$comment alias zaza_0__mainBlock__a2_2_transformIt "zaza_0::mainBlock::a2_2_transformIt" $end
$comment alias zaza_0__mainBlock__c1_3_DelayFor_writeDelayed "zaza_0::mainBlock::c1_3_DelayFor_writeDelayed" $end
$comment hide zaza_0__mainBlock__c1_3_DelayFor_writeDelayed__DelayForDef__DelayFor_defer $end
$comment alias zaza_0__mainBlock__c1_3_DelayFor_writeDelayed__DelayForDef__DelayFor_defer "zaza_0::mainBlock::c1_3_DelayFor_writeDelayed::DelayForDef::DelayFor_defer" $end
$comment hide zaza_0__mainBlock__c1_3Alternates_connectorBehavior3__AlternatesDef__Alt_c1DelayedByOne $end
$comment alias zaza_0__mainBlock__c1_3Alternates_connectorBehavior3__AlternatesDef__Alt_c1DelayedByOne "zaza_0::mainBlock::c1_3Alternates_connectorBehavior3::AlternatesDef::Alt_c1DelayedByOne" $end
$comment hide zaza_0__mainBlock__c1_3Alternates_connectorBehavior2__AlternatesDef__Alt_c1DelayedByOne $end
$comment alias zaza_0__mainBlock__c1_3Alternates_connectorBehavior2__AlternatesDef__Alt_c1DelayedByOne "zaza_0::mainBlock::c1_3Alternates_connectorBehavior2::AlternatesDef::Alt_c1DelayedByOne" $end
$comment scale 0.1  $end
$scope module top $end
$var event 1 !1 zaza_0__mainBlock__zaza_0_time $end
$var event 1 !2 zaza_0__mainBlock__a1_1_readIt $end
$var event 1 !3 zaza_0__mainBlock__a2_2_writeIt $end
$var event 1 !4 zaza_0__mainBlock__a1_1_transformIt $end
$var event 1 !5 zaza_0__mainBlock__a1_1_startIt $end
$var event 1 !6 zaza_0__mainBlock__a1_1_writeIt $end
$var event 1 !7 zaza_0__mainBlock__a2_2_readIt $end
$var event 1 !8 zaza_0__mainBlock__c1_3_transferIt $end
$var event 1 !9 zaza_0__mainBlock__a1_1_stopIt $end
$var event 1 !10 zaza_0__mainBlock__a2_2_stopIt $end
$var event 1 !11 zaza_0__mainBlock__a2_2_startIt $end
$var event 1 !12 zaza_0__mainBlock__a2_2_transformIt $end
$var event 1 !13 zaza_0__mainBlock__c1_3_DelayFor_writeDelayed $end
$var event 1 !14 zaza_0__mainBlock__c1_3_DelayFor_writeDelayed__DelayForDef__DelayFor_defer $end
$var event 1 !15 zaza_0__mainBlock__c1_3Alternates_connectorBehavior3__AlternatesDef__Alt_c1DelayedByOne $end
$var event 1 !16 zaza_0__mainBlock__c1_3Alternates_connectorBehavior2__AlternatesDef__Alt_c1DelayedByOne $end
$upscope $end
$enddefinitions $end

#10
1!1
1!2
1!5
#20
1!1
1!4
#30
1!1
1!6
1!9
#40
1!1
1!2
1!5
1!8
#50
1!1
1!4
1!7
1!11
#60
1!1
1!6
1!9
1!12
#70
1!1
1!2
1!3
1!5
1!8
1!10
#80
1!1
1!4
1!7
1!11
#90
1!1
1!6
1!9
1!12
#100
1!1
1!2
1!3
1!5
1!8
1!10
#110
1!1
1!4
1!7
1!11
#120
1!1
1!6
1!9
1!12
#130
1!1
1!2
1!3
1!5
1!8
1!10
#140
1!1
1!4
1!7
1!11
#150
1!1
1!6
1!9
1!12
#160
1!1
1!2
1!3
1!5
1!8
1!10
#170
1!1
1!4
1!7
1!11
#180
1!1
1!6
1!9
1!12
#190
1!1
1!2
1!3
1!5
1!8
1!10
#200
1!1
1!4
1!7
1!11
#210
1!1
1!6
1!9
1!12
#220
1!1
1!2
1!3
1!5
1!8
1!10
#230
1!1
1!4
1!7
1!11
#240
1!1
1!6
1!9
1!12
#250
1!1
1!2
1!3
1!5
1!8
1!10
#260
1!1
1!4
1!7
1!11
#270
1!1
1!6
1!9
1!12
#280
1!1
1!2
1!3
1!5
1!8
1!10
#290
1!1
1!4
1!7
1!11
#300
1!1
1!6
1!9
1!12
#310
1!1
1!2
1!3
1!5
1!8
1!10
#320
1!1
1!4
1!7
1!11
#330
1!1
1!6
1!9
1!12
#340
1!1
1!2
1!3
1!5
1!8
1!10
#350
1!1
1!4
1!7
1!11
#360
1!1
1!6
1!9
1!12
#370
1!1
1!2
1!3
1!5
1!8
1!10
#380
1!1
1!4
1!7
1!11
#390
1!1
1!6
1!9
1!12
#400
1!1
1!2
1!3
1!5
1!8
1!10
#410
1!1
1!4
1!7
1!11
#420
1!1
1!6
1!9
1!12
#430
1!1
1!2
1!3
1!5
1!8
1!10
#440
1!1
1!4
1!7
1!11
#450
1!1
1!6
1!9
1!12
#460
1!1
1!2
1!3
1!5
1!8
1!10
#470
1!1
1!4
1!7
1!11
#480
1!1
1!6
1!9
1!12
#490
1!1
1!2
1!3
1!5
1!8
1!10
#500
1!1
1!4
1!7
1!11
#510
1!1
1!6
1!9
1!12
#520
1!1
1!2
1!3
1!5
1!8
1!10
#530
1!1
1!4
1!7
1!11
#540
1!1
1!6
1!9
1!12
#550
1!1
1!2
1!3
1!5
1!8
1!10
#560
1!1
1!4
1!7
1!11
#570
1!1
1!6
1!9
1!12
#580
1!1
1!2
1!3
1!5
1!8
1!10
#590
1!1
1!4
1!7
1!11
#600
1!1
1!6
1!9
1!12
#610
1!1
1!2
1!3
1!5
1!8
1!10
#620
1!1
1!4
1!7
1!11
#630
1!1
1!6
1!9
1!12
#640
1!1
1!2
1!3
1!5
1!8
1!10
#650
1!1
1!4
1!7
1!11
#660
1!1
1!6
1!9
1!12
#670
1!1
1!2
1!3
1!5
1!8
1!10
#680
1!1
1!4
1!7
1!11
#690
1!1
1!6
1!9
1!12
#700
1!1
1!2
1!3
1!5
1!8
1!10
#710
1!1
1!4
1!7
1!11
#720
1!1
1!6
1!9
1!12
#730
1!1
1!2
1!3
1!5
1!8
1!10
#740
1!1
1!4
1!7
1!11
#750
1!1
1!6
1!9
1!12
#760
1!1
1!2
1!3
1!5
1!8
1!10
#770
1!1
1!4
1!7
1!11
#780
1!1
1!6
1!9
1!12
#790
1!1
1!2
1!3
1!5
1!8
1!10
#800
1!1
1!4
1!7
1!11
#810
1!1
1!6
1!9
1!12
#820
z!1
z!2
z!3
z!4
z!5
z!6
z!7
z!8
z!9
z!10
z!11
z!12
z!13
z!14
z!15
z!16
