modelingWB/test1/gemoc-gen/execution/execution-20191014_230546/vcdFromSimu.vcd
$date 
Mon Oct 14 23:05:53 CEST 2019
$end

$version 
VCD Generation 2.1.0
$end

$comment alias zaza_0__mainBlock__a2_2_transformIt "zaza_0::mainBlock::a2_2_transformIt" $end
$comment alias zaza_0__mainBlock__a2_2_readIt "zaza_0::mainBlock::a2_2_readIt" $end
$comment alias zaza_0__mainBlock__a1_1_startIt "zaza_0::mainBlock::a1_1_startIt" $end
$comment alias zaza_0__mainBlock__a1_1_writeIt "zaza_0::mainBlock::a1_1_writeIt" $end
$comment alias zaza_0__mainBlock__zaza_0_time "zaza_0::mainBlock::zaza_0_time" $end
$comment alias zaza_0__mainBlock__a2_2_startIt "zaza_0::mainBlock::a2_2_startIt" $end
$comment alias zaza_0__mainBlock__a1_1_stopIt "zaza_0::mainBlock::a1_1_stopIt" $end
$comment alias zaza_0__mainBlock__a2_2_stopIt "zaza_0::mainBlock::a2_2_stopIt" $end
$comment alias zaza_0__mainBlock__a1_1_readIt "zaza_0::mainBlock::a1_1_readIt" $end
$comment alias zaza_0__mainBlock__a1_1_transformIt "zaza_0::mainBlock::a1_1_transformIt" $end
$comment alias zaza_0__mainBlock__a2_2_writeIt "zaza_0::mainBlock::a2_2_writeIt" $end
$comment alias zaza_0__mainBlock__c1_3_transferIt "zaza_0::mainBlock::c1_3_transferIt" $end
$comment alias zaza_0__mainBlock__c1_3_DelayFor_writeDelayed "zaza_0::mainBlock::c1_3_DelayFor_writeDelayed" $end
$comment hide zaza_0__mainBlock__c1_3_DelayFor_writeDelayed__DelayForDef__DelayFor_defer $end
$comment alias zaza_0__mainBlock__c1_3_DelayFor_writeDelayed__DelayForDef__DelayFor_defer "zaza_0::mainBlock::c1_3_DelayFor_writeDelayed::DelayForDef::DelayFor_defer" $end
$comment hide zaza_0__mainBlock__c1_3Alternates_connectorBehavior2__AlternatesDef__Alt_c1DelayedByOne $end
$comment alias zaza_0__mainBlock__c1_3Alternates_connectorBehavior2__AlternatesDef__Alt_c1DelayedByOne "zaza_0::mainBlock::c1_3Alternates_connectorBehavior2::AlternatesDef::Alt_c1DelayedByOne" $end
$comment hide zaza_0__mainBlock__c1_3Alternates_connectorBehavior3__AlternatesDef__Alt_c1DelayedByOne $end
$comment alias zaza_0__mainBlock__c1_3Alternates_connectorBehavior3__AlternatesDef__Alt_c1DelayedByOne "zaza_0::mainBlock::c1_3Alternates_connectorBehavior3::AlternatesDef::Alt_c1DelayedByOne" $end
$comment scale 0.1  $end
$scope module top $end
$var event 1 !1 zaza_0__mainBlock__a2_2_transformIt $end
$var event 1 !2 zaza_0__mainBlock__a2_2_readIt $end
$var event 1 !3 zaza_0__mainBlock__a1_1_startIt $end
$var event 1 !4 zaza_0__mainBlock__a1_1_writeIt $end
$var event 1 !5 zaza_0__mainBlock__zaza_0_time $end
$var event 1 !6 zaza_0__mainBlock__a2_2_startIt $end
$var event 1 !7 zaza_0__mainBlock__a1_1_stopIt $end
$var event 1 !8 zaza_0__mainBlock__a2_2_stopIt $end
$var event 1 !9 zaza_0__mainBlock__a1_1_readIt $end
$var event 1 !10 zaza_0__mainBlock__a1_1_transformIt $end
$var event 1 !11 zaza_0__mainBlock__a2_2_writeIt $end
$var event 1 !12 zaza_0__mainBlock__c1_3_transferIt $end
$var event 1 !13 zaza_0__mainBlock__c1_3_DelayFor_writeDelayed $end
$var event 1 !14 zaza_0__mainBlock__c1_3_DelayFor_writeDelayed__DelayForDef__DelayFor_defer $end
$var event 1 !15 zaza_0__mainBlock__c1_3Alternates_connectorBehavior2__AlternatesDef__Alt_c1DelayedByOne $end
$var event 1 !16 zaza_0__mainBlock__c1_3Alternates_connectorBehavior3__AlternatesDef__Alt_c1DelayedByOne $end
$upscope $end
$enddefinitions $end

#10
1!3
1!9
#20
1!5
#30
1!5
#40
1!10
#50
1!4
1!7
#60
1!5
#70
1!12
#80
1!2
1!5
1!6
#90
1!1
#100
1!5
1!8
1!11
#110
1!3
1!5
1!9
#120
1!5
1!10
#130
1!4
1!5
1!7
#140
1!3
1!5
1!9
1!12
#150
1!2
1!5
1!6
1!10
#160
1!1
1!4
1!5
1!7
#170
1!3
1!5
1!8
1!9
1!11
1!12
#180
1!2
1!5
1!6
1!10
#190
1!1
1!4
1!5
1!7
#200
1!3
1!5
1!8
1!9
1!11
1!12
#210
1!2
1!5
1!6
1!10
#220
1!1
1!4
1!5
1!7
#230
1!3
1!5
1!8
1!9
1!11
1!12
#240
1!2
1!5
1!6
1!10
#250
1!1
1!4
1!5
1!7
#260
1!3
1!5
1!8
1!9
1!11
1!12
#270
1!2
1!5
1!6
1!10
#280
1!1
1!4
1!5
1!7
#290
1!3
1!5
1!8
1!9
1!11
1!12
#300
1!2
1!5
1!6
1!10
#310
1!1
1!4
1!5
1!7
#320
1!3
1!5
1!8
1!9
1!11
1!12
#330
1!2
1!5
1!6
1!10
#340
1!1
1!4
1!5
1!7
#350
1!3
1!5
1!8
1!9
1!11
1!12
#360
1!2
1!5
1!6
1!10
#370
1!1
1!4
1!5
1!7
#380
1!3
1!5
1!8
1!9
1!11
1!12
#390
1!2
1!5
1!6
1!10
#400
1!1
1!4
1!5
1!7
#410
1!3
1!5
1!8
1!9
1!11
1!12
#420
1!2
1!5
1!6
1!10
#430
1!1
1!4
1!5
1!7
#440
1!3
1!5
1!8
1!9
1!11
1!12
#450
1!2
1!5
1!6
1!10
#460
1!1
1!4
1!5
1!7
#470
1!3
1!5
1!8
1!9
1!11
1!12
#480
1!2
1!5
1!6
1!10
#490
1!1
1!4
1!5
1!7
#500
1!3
1!5
1!8
1!9
1!11
1!12
#510
1!2
1!5
1!6
1!10
#520
1!1
1!4
1!5
1!7
#530
1!3
1!5
1!8
1!9
1!11
1!12
#540
1!2
1!5
1!6
1!10
#550
1!1
1!4
1!5
1!7
#560
1!3
1!5
1!8
1!9
1!11
1!12
#570
1!2
1!5
1!6
1!10
#580
1!1
1!4
1!5
1!7
#590
1!3
1!5
1!8
1!9
1!11
1!12
#600
1!2
1!5
1!6
1!10
#610
1!1
1!4
1!5
1!7
#620
1!3
1!5
1!8
1!9
1!11
1!12
#630
1!2
1!5
1!6
1!10
#640
1!1
1!4
1!5
1!7
#650
1!3
1!5
1!8
1!9
1!11
1!12
#660
1!2
1!5
1!6
1!10
#670
1!1
1!4
1!5
1!7
#680
1!3
1!5
1!8
1!9
1!11
1!12
#690
1!2
1!5
1!6
1!10
#700
1!1
1!4
1!5
1!7
#710
1!3
1!5
1!8
1!9
1!11
1!12
#720
1!2
1!5
1!6
1!10
#730
1!1
1!4
1!5
1!7
#740
1!3
1!5
1!8
1!9
1!11
1!12
#750
1!2
1!5
1!6
1!10
#760
1!1
1!4
1!5
1!7
#770
1!3
1!5
1!8
1!9
1!11
1!12
#780
1!2
1!5
1!6
1!10
#790
1!1
1!4
1!5
1!7
#800
1!3
1!5
1!8
1!9
1!11
1!12
#810
1!2
1!5
1!6
1!10
#820
1!1
1!4
1!5
1!7
#830
1!3
1!5
1!8
1!9
1!11
1!12
#840
1!2
1!5
1!6
1!10
#850
1!1
1!4
1!5
1!7
#860
1!5
1!12
#870
1!3
1!8
1!9
1!11
#880
1!10
#890
1!4
1!7
#900
1!3
1!9
#910
1!10
#920
1!2
1!5
1!6
#930
1!12
#940
1!4
1!7
#950
1!3
1!9
#960
1!10
#970
1!1
#980
1!8
1!11
#990
1!2
1!5
1!6
#1000
z!1
z!2
z!3
z!4
z!5
z!6
z!7
z!8
z!9
z!10
z!11
z!12
z!13
z!14
z!15
z!16
