modelingWB/test1/gemoc-gen/execution/execution-20191014_180444/vcdFromSimu.vcd
$date 
Mon Oct 14 18:04:46 CEST 2019
$end

$version 
VCD Generation 2.1.0
$end

$comment alias zaza_0__mainBlock__a2_2_readIt "zaza_0::mainBlock::a2_2_readIt" $end
$comment alias zaza_0__mainBlock__a1_1_writeIt "zaza_0::mainBlock::a1_1_writeIt" $end
$comment alias zaza_0__mainBlock__zaza_0_time "zaza_0::mainBlock::zaza_0_time" $end
$comment alias zaza_0__mainBlock__a1_1_stopIt "zaza_0::mainBlock::a1_1_stopIt" $end
$comment alias zaza_0__mainBlock__c1_3_transferIt "zaza_0::mainBlock::c1_3_transferIt" $end
$comment alias zaza_0__mainBlock__a1_1_startIt "zaza_0::mainBlock::a1_1_startIt" $end
$comment alias zaza_0__mainBlock__a1_1_transformIt "zaza_0::mainBlock::a1_1_transformIt" $end
$comment alias zaza_0__mainBlock__a2_2_stopIt "zaza_0::mainBlock::a2_2_stopIt" $end
$comment alias zaza_0__mainBlock__a2_2_startIt "zaza_0::mainBlock::a2_2_startIt" $end
$comment alias zaza_0__mainBlock__a2_2_writeIt "zaza_0::mainBlock::a2_2_writeIt" $end
$comment alias zaza_0__mainBlock__a1_1_readIt "zaza_0::mainBlock::a1_1_readIt" $end
$comment alias zaza_0__mainBlock__a2_2_transformIt "zaza_0::mainBlock::a2_2_transformIt" $end
$comment alias zaza_0__mainBlock__c1_3_DelayFor_writeDelayed "zaza_0::mainBlock::c1_3_DelayFor_writeDelayed" $end
$comment hide zaza_0__mainBlock__c1_3Alternates_connectorBehavior3__AlternatesDef__Alt_c1DelayedByOne $end
$comment alias zaza_0__mainBlock__c1_3Alternates_connectorBehavior3__AlternatesDef__Alt_c1DelayedByOne "zaza_0::mainBlock::c1_3Alternates_connectorBehavior3::AlternatesDef::Alt_c1DelayedByOne" $end
$comment hide zaza_0__mainBlock__c1_3Alternates_connectorBehavior2__AlternatesDef__Alt_c1DelayedByOne $end
$comment alias zaza_0__mainBlock__c1_3Alternates_connectorBehavior2__AlternatesDef__Alt_c1DelayedByOne "zaza_0::mainBlock::c1_3Alternates_connectorBehavior2::AlternatesDef::Alt_c1DelayedByOne" $end
$comment hide zaza_0__mainBlock__c1_3_DelayFor_writeDelayed__DelayForDef__DelayFor_defer $end
$comment alias zaza_0__mainBlock__c1_3_DelayFor_writeDelayed__DelayForDef__DelayFor_defer "zaza_0::mainBlock::c1_3_DelayFor_writeDelayed::DelayForDef::DelayFor_defer" $end
$comment scale 0.1  $end
$scope module top $end
$var event 1 !1 zaza_0__mainBlock__a2_2_readIt $end
$var event 1 !2 zaza_0__mainBlock__a1_1_writeIt $end
$var event 1 !3 zaza_0__mainBlock__zaza_0_time $end
$var event 1 !4 zaza_0__mainBlock__a1_1_stopIt $end
$var event 1 !5 zaza_0__mainBlock__c1_3_transferIt $end
$var event 1 !6 zaza_0__mainBlock__a1_1_startIt $end
$var event 1 !7 zaza_0__mainBlock__a1_1_transformIt $end
$var event 1 !8 zaza_0__mainBlock__a2_2_stopIt $end
$var event 1 !9 zaza_0__mainBlock__a2_2_startIt $end
$var event 1 !10 zaza_0__mainBlock__a2_2_writeIt $end
$var event 1 !11 zaza_0__mainBlock__a1_1_readIt $end
$var event 1 !12 zaza_0__mainBlock__a2_2_transformIt $end
$var event 1 !13 zaza_0__mainBlock__c1_3_DelayFor_writeDelayed $end
$var event 1 !14 zaza_0__mainBlock__c1_3Alternates_connectorBehavior3__AlternatesDef__Alt_c1DelayedByOne $end
$var event 1 !15 zaza_0__mainBlock__c1_3Alternates_connectorBehavior2__AlternatesDef__Alt_c1DelayedByOne $end
$var event 1 !16 zaza_0__mainBlock__c1_3_DelayFor_writeDelayed__DelayForDef__DelayFor_defer $end
$upscope $end
$enddefinitions $end

#10
1!6
1!11
#20
1!7
#30
1!2
1!3
1!4
#40
1!3
1!5
1!6
1!11
#50
1!3
1!7
#60
1!1
1!2
1!3
1!4
1!9
#70
1!3
1!5
1!6
1!11
1!12
#80
1!3
1!7
1!8
1!10
#90
1!1
1!2
1!3
1!4
1!9
#100
1!3
1!5
1!6
1!11
1!12
#110
1!3
1!7
1!8
1!10
#120
1!1
1!2
1!3
1!4
1!9
#130
1!3
1!5
1!6
1!11
1!12
#140
1!3
1!7
1!8
1!10
#150
1!1
1!2
1!3
1!4
1!9
#160
1!3
1!5
1!6
1!11
1!12
#170
1!3
1!7
1!8
1!10
#180
1!1
1!2
1!3
1!4
1!9
#190
1!3
1!5
1!6
1!11
1!12
#200
1!3
1!7
1!8
1!10
#210
1!1
1!2
1!3
1!4
1!9
#220
1!3
1!5
1!6
1!11
1!12
#230
1!3
1!7
1!8
1!10
#240
1!1
1!2
1!3
1!4
1!9
#250
1!3
1!5
1!6
1!11
1!12
#260
1!3
1!7
1!8
1!10
#270
1!1
1!2
1!3
1!4
1!9
#280
1!3
1!5
1!6
1!11
1!12
#290
1!3
1!7
1!8
1!10
#300
1!1
1!2
1!3
1!4
1!9
#310
1!3
1!5
1!6
1!11
1!12
#320
1!3
1!7
1!8
1!10
#330
1!1
1!2
1!3
1!4
1!9
#340
1!3
1!5
1!6
1!11
1!12
#350
1!3
1!7
1!8
1!10
#360
1!1
1!2
1!3
1!4
1!9
#370
1!3
1!5
1!6
1!11
1!12
#380
1!3
1!7
1!8
1!10
#390
1!1
1!2
1!3
1!4
1!9
#400
1!3
1!5
1!6
1!11
1!12
#410
1!3
1!7
1!8
1!10
#420
1!1
1!2
1!3
1!4
1!9
#430
1!3
1!5
1!6
1!11
1!12
#440
1!3
1!7
1!8
1!10
#450
1!1
1!2
1!3
1!4
1!9
#460
1!3
1!5
1!6
1!11
1!12
#470
1!3
1!7
1!8
1!10
#480
1!1
1!2
1!3
1!4
1!9
#490
1!3
1!5
1!6
1!11
1!12
#500
1!3
1!7
1!8
1!10
#510
1!1
1!2
1!3
1!4
1!9
#520
1!3
1!5
1!6
1!11
1!12
#530
1!3
1!7
1!8
1!10
#540
1!1
1!2
1!3
1!4
1!9
#550
1!3
1!5
1!6
1!11
1!12
#560
1!3
1!7
1!8
1!10
#570
1!1
1!2
1!3
1!4
1!9
#580
1!3
1!5
1!6
1!11
1!12
#590
1!3
1!7
1!8
1!10
#600
1!1
1!2
1!3
1!4
1!9
#610
1!3
1!5
1!6
1!11
1!12
#620
1!3
1!7
1!8
1!10
#630
1!1
1!2
1!3
1!4
1!9
#640
1!3
1!5
1!6
1!11
1!12
#650
1!3
1!7
1!8
1!10
#660
1!1
1!2
1!3
1!4
1!9
#670
1!3
1!5
1!6
1!11
1!12
#680
1!3
1!7
1!8
1!10
#690
1!1
1!2
1!3
1!4
1!9
#700
1!3
1!5
1!6
1!11
1!12
#710
1!3
1!7
1!8
1!10
#720
1!1
1!2
1!3
1!4
1!9
#730
1!3
1!5
1!6
1!11
1!12
#740
1!3
1!7
1!8
1!10
#750
1!1
1!2
1!3
1!4
1!9
#760
1!3
1!5
1!6
1!11
1!12
#770
1!3
1!7
1!8
1!10
#780
1!1
1!2
1!3
1!4
1!9
#790
1!3
1!5
1!6
1!11
1!12
#800
1!7
#810
1!3
#820
1!8
1!10
#830
1!1
1!2
1!3
1!4
1!9
#840
1!3
1!5
1!6
1!11
1!12
#850
1!3
1!7
1!8
1!10
#860
1!1
1!2
1!3
1!4
1!9
#870
1!3
1!5
1!6
1!11
1!12
#880
1!3
1!7
1!8
1!10
#890
1!1
1!2
1!3
1!4
1!9
#900
1!3
1!5
1!6
1!11
1!12
#910
1!3
1!7
1!8
1!10
#920
1!1
1!2
1!3
1!4
1!9
#930
1!3
1!5
1!6
1!11
1!12
#940
1!3
1!7
1!8
1!10
#950
1!1
1!2
1!3
1!4
1!9
#960
1!3
1!5
1!6
1!11
1!12
#970
1!3
1!7
1!8
1!10
#980
1!1
1!2
1!3
1!4
1!9
#990
1!3
1!5
1!6
1!11
1!12
#1000
1!3
1!7
1!8
1!10
#1010
1!1
1!2
1!3
1!4
1!9
#1020
1!3
1!5
1!6
1!11
1!12
#1030
1!3
1!7
1!8
1!10
#1040
1!1
1!2
1!3
1!4
1!9
#1050
1!3
1!5
1!6
1!11
1!12
#1060
z!1
z!2
z!3
z!4
z!5
z!6
z!7
z!8
z!9
z!10
z!11
z!12
z!13
z!14
z!15
z!16
