modelingWB/test1/gemoc-gen/execution/execution-20191014_175611/vcdFromSimu.vcd
$date 
Mon Oct 14 17:56:13 CEST 2019
$end

$version 
VCD Generation 2.1.0
$end

$comment alias zaza_0__mainBlock__a1_1_readIt "zaza_0::mainBlock::a1_1_readIt" $end
$comment alias zaza_0__mainBlock__a2_2_readIt "zaza_0::mainBlock::a2_2_readIt" $end
$comment alias zaza_0__mainBlock__a2_2_transformIt "zaza_0::mainBlock::a2_2_transformIt" $end
$comment alias zaza_0__mainBlock__a2_2_stopIt "zaza_0::mainBlock::a2_2_stopIt" $end
$comment alias zaza_0__mainBlock__zaza_0_time "zaza_0::mainBlock::zaza_0_time" $end
$comment alias zaza_0__mainBlock__a1_1_transformIt "zaza_0::mainBlock::a1_1_transformIt" $end
$comment alias zaza_0__mainBlock__a1_1_startIt "zaza_0::mainBlock::a1_1_startIt" $end
$comment alias zaza_0__mainBlock__a2_2_startIt "zaza_0::mainBlock::a2_2_startIt" $end
$comment alias zaza_0__mainBlock__a1_1_writeIt "zaza_0::mainBlock::a1_1_writeIt" $end
$comment alias zaza_0__mainBlock__c1_3_transferIt "zaza_0::mainBlock::c1_3_transferIt" $end
$comment alias zaza_0__mainBlock__a2_2_writeIt "zaza_0::mainBlock::a2_2_writeIt" $end
$comment alias zaza_0__mainBlock__a1_1_stopIt "zaza_0::mainBlock::a1_1_stopIt" $end
$comment hide zaza_0__mainBlock__c1_3_DelayFor_writeDelayed__DelayForDef__DelayFor_defer $end
$comment alias zaza_0__mainBlock__c1_3_DelayFor_writeDelayed__DelayForDef__DelayFor_defer "zaza_0::mainBlock::c1_3_DelayFor_writeDelayed::DelayForDef::DelayFor_defer" $end
$comment hide zaza_0__mainBlock__c1_3Alternates_connectorBehavior2__AlternatesDef__Alt_c1DelayedByOne $end
$comment alias zaza_0__mainBlock__c1_3Alternates_connectorBehavior2__AlternatesDef__Alt_c1DelayedByOne "zaza_0::mainBlock::c1_3Alternates_connectorBehavior2::AlternatesDef::Alt_c1DelayedByOne" $end
$comment hide zaza_0__mainBlock__c1_3Alternates_connectorBehavior3__AlternatesDef__Alt_c1DelayedByOne $end
$comment alias zaza_0__mainBlock__c1_3Alternates_connectorBehavior3__AlternatesDef__Alt_c1DelayedByOne "zaza_0::mainBlock::c1_3Alternates_connectorBehavior3::AlternatesDef::Alt_c1DelayedByOne" $end
$comment alias zaza_0__mainBlock__c1_3_DelayFor_writeDelayed "zaza_0::mainBlock::c1_3_DelayFor_writeDelayed" $end
$comment scale 0.1  $end
$scope module top $end
$var event 1 !1 zaza_0__mainBlock__a1_1_readIt $end
$var event 1 !2 zaza_0__mainBlock__a2_2_readIt $end
$var event 1 !3 zaza_0__mainBlock__a2_2_transformIt $end
$var event 1 !4 zaza_0__mainBlock__a2_2_stopIt $end
$var event 1 !5 zaza_0__mainBlock__zaza_0_time $end
$var event 1 !6 zaza_0__mainBlock__a1_1_transformIt $end
$var event 1 !7 zaza_0__mainBlock__a1_1_startIt $end
$var event 1 !8 zaza_0__mainBlock__a2_2_startIt $end
$var event 1 !9 zaza_0__mainBlock__a1_1_writeIt $end
$var event 1 !10 zaza_0__mainBlock__c1_3_transferIt $end
$var event 1 !11 zaza_0__mainBlock__a2_2_writeIt $end
$var event 1 !12 zaza_0__mainBlock__a1_1_stopIt $end
$var event 1 !13 zaza_0__mainBlock__c1_3_DelayFor_writeDelayed__DelayForDef__DelayFor_defer $end
$var event 1 !14 zaza_0__mainBlock__c1_3Alternates_connectorBehavior2__AlternatesDef__Alt_c1DelayedByOne $end
$var event 1 !15 zaza_0__mainBlock__c1_3Alternates_connectorBehavior3__AlternatesDef__Alt_c1DelayedByOne $end
$var event 1 !16 zaza_0__mainBlock__c1_3_DelayFor_writeDelayed $end
$upscope $end
$enddefinitions $end

#10
1!5
#20
1!5
#30
1!1
1!7
#40
1!6
#50
1!9
1!12
#60
1!5
#70
1!10
#80
1!5
#90
1!2
1!5
1!8
#100
1!3
1!5
#110
1!4
1!11
#120
1!1
1!7
#130
1!6
#140
1!9
1!12
#150
1!10
#160
1!5
#170
1!5
#180
1!2
1!5
1!8
#190
z!1
z!2
z!3
z!4
z!5
z!6
z!7
z!8
z!9
z!10
z!11
z!12
z!13
z!14
z!15
z!16
