modelingWB/test1/gemoc-gen/trace/Simulation2019_1014_181334/test1xtext2019_1014_181334.vcd
$date 
Mon Oct 14 18:13:34 CEST 2019
$end

$version 
VCD Generation 2.1.0
$end

$comment alias zaza_0__mainBlock__a1_1_readIt "zaza_0::mainBlock::a1_1_readIt" $end
$comment alias zaza_0__mainBlock__a1_1_startIt "zaza_0::mainBlock::a1_1_startIt" $end
$comment alias zaza_0__mainBlock__a1_1_stopIt "zaza_0::mainBlock::a1_1_stopIt" $end
$comment alias zaza_0__mainBlock__a1_1_transformIt "zaza_0::mainBlock::a1_1_transformIt" $end
$comment alias zaza_0__mainBlock__a1_1_writeIt "zaza_0::mainBlock::a1_1_writeIt" $end
$comment alias zaza_0__mainBlock__a2_2_readIt "zaza_0::mainBlock::a2_2_readIt" $end
$comment alias zaza_0__mainBlock__a2_2_startIt "zaza_0::mainBlock::a2_2_startIt" $end
$comment alias zaza_0__mainBlock__a2_2_stopIt "zaza_0::mainBlock::a2_2_stopIt" $end
$comment alias zaza_0__mainBlock__a2_2_transformIt "zaza_0::mainBlock::a2_2_transformIt" $end
$comment alias zaza_0__mainBlock__a2_2_writeIt "zaza_0::mainBlock::a2_2_writeIt" $end
$comment hide zaza_0__mainBlock__c1_3Alternates_connectorBehavior2__AlternatesDef__Alt_c1DelayedByOne $end
$comment alias zaza_0__mainBlock__c1_3Alternates_connectorBehavior2__AlternatesDef__Alt_c1DelayedByOne "zaza_0::mainBlock::c1_3Alternates_connectorBehavior2::AlternatesDef::Alt_c1DelayedByOne" $end
$comment hide zaza_0__mainBlock__c1_3Alternates_connectorBehavior3__AlternatesDef__Alt_c1DelayedByOne $end
$comment alias zaza_0__mainBlock__c1_3Alternates_connectorBehavior3__AlternatesDef__Alt_c1DelayedByOne "zaza_0::mainBlock::c1_3Alternates_connectorBehavior3::AlternatesDef::Alt_c1DelayedByOne" $end
$comment alias zaza_0__mainBlock__c1_3_DelayFor_writeDelayed "zaza_0::mainBlock::c1_3_DelayFor_writeDelayed" $end
$comment hide zaza_0__mainBlock__c1_3_DelayFor_writeDelayed__DelayForDef__DelayFor_defer $end
$comment alias zaza_0__mainBlock__c1_3_DelayFor_writeDelayed__DelayForDef__DelayFor_defer "zaza_0::mainBlock::c1_3_DelayFor_writeDelayed::DelayForDef::DelayFor_defer" $end
$comment alias zaza_0__mainBlock__c1_3_transferIt "zaza_0::mainBlock::c1_3_transferIt" $end
$comment alias zaza_0__mainBlock__zaza_0_time "zaza_0::mainBlock::zaza_0_time" $end
$comment scale 0.1  $end
$comment relation   "test1xtext2019_1014_181334.ccslrelationmodel" $end
$comment xmi  zaza_0__mainBlock__a2_2_transformIt "test1xtext2019_1014_181334.trace#//@references.0" $end
$comment xmi  zaza_0__mainBlock__a2_2_writeIt "test1xtext2019_1014_181334.trace#//@references.1" $end
$comment xmi  zaza_0__mainBlock__a1_1_stopIt "test1xtext2019_1014_181334.trace#//@references.2" $end
$comment xmi  zaza_0__mainBlock__a1_1_writeIt "test1xtext2019_1014_181334.trace#//@references.3" $end
$comment xmi  zaza_0__mainBlock__a1_1_transformIt "test1xtext2019_1014_181334.trace#//@references.4" $end
$comment xmi  zaza_0__mainBlock__zaza_0_time "test1xtext2019_1014_181334.trace#//@references.5" $end
$comment xmi  zaza_0__mainBlock__a2_2_startIt "test1xtext2019_1014_181334.trace#//@references.6" $end
$comment xmi  zaza_0__mainBlock__a2_2_readIt "test1xtext2019_1014_181334.trace#//@references.7" $end
$comment xmi  zaza_0__mainBlock__a2_2_stopIt "test1xtext2019_1014_181334.trace#//@references.8" $end
$comment xmi  zaza_0__mainBlock__a1_1_startIt "test1xtext2019_1014_181334.trace#//@references.9" $end
$comment xmi  zaza_0__mainBlock__c1_3_transferIt "test1xtext2019_1014_181334.trace#//@references.10" $end
$comment xmi  zaza_0__mainBlock__a1_1_readIt "test1xtext2019_1014_181334.trace#//@references.11" $end
$comment xmi  zaza_0__mainBlock__c1_3_DelayFor_writeDelayed "test1xtext2019_1014_181334.trace#//@references.12" $end
$comment xmi  zaza_0__mainBlock__c1_3Alternates_connectorBehavior3__AlternatesDef__Alt_c1DelayedByOne "test1xtext2019_1014_181334.trace#//@references.13" $end
$comment xmi  zaza_0__mainBlock__c1_3Alternates_connectorBehavior2__AlternatesDef__Alt_c1DelayedByOne "test1xtext2019_1014_181334.trace#//@references.14" $end
$comment xmi  zaza_0__mainBlock__c1_3_DelayFor_writeDelayed__DelayForDef__DelayFor_defer "test1xtext2019_1014_181334.trace#//@references.15" $end
$scope module top $end
$var event 1 !1 zaza_0__mainBlock__a1_1_readIt $end
$var event 1 !2 zaza_0__mainBlock__a1_1_startIt $end
$var event 1 !3 zaza_0__mainBlock__a1_1_stopIt $end
$var event 1 !4 zaza_0__mainBlock__a1_1_transformIt $end
$var event 1 !5 zaza_0__mainBlock__a1_1_writeIt $end
$var event 1 !6 zaza_0__mainBlock__a2_2_readIt $end
$var event 1 !7 zaza_0__mainBlock__a2_2_startIt $end
$var event 1 !8 zaza_0__mainBlock__a2_2_stopIt $end
$var event 1 !9 zaza_0__mainBlock__a2_2_transformIt $end
$var event 1 !10 zaza_0__mainBlock__a2_2_writeIt $end
$var event 1 !11 zaza_0__mainBlock__c1_3Alternates_connectorBehavior2__AlternatesDef__Alt_c1DelayedByOne $end
$var event 1 !12 zaza_0__mainBlock__c1_3Alternates_connectorBehavior3__AlternatesDef__Alt_c1DelayedByOne $end
$var event 1 !13 zaza_0__mainBlock__c1_3_DelayFor_writeDelayed $end
$var event 1 !14 zaza_0__mainBlock__c1_3_DelayFor_writeDelayed__DelayForDef__DelayFor_defer $end
$var event 1 !15 zaza_0__mainBlock__c1_3_transferIt $end
$var event 1 !16 zaza_0__mainBlock__zaza_0_time $end
$upscope $end
$enddefinitions $end

#0
1!16
1!2
1!1
#10
1!4
1!16
#20
1!3
1!5
#30
1!16
1!15
#40
1!16
1!2
1!1
1!13
1!14
#50
1!4
1!16
1!7
1!6
#60
1!9
1!3
1!5
1!11
#70
1!16
1!15
1!12
#80
1!10
1!16
1!8
1!13
1!14
#90
1!7
1!6
1!2
1!1
#100
1!4
1!16
#110
1!9
1!3
1!5
1!16
1!11
#120
1!10
1!16
1!8
#130
1!16
1!15
1!13
1!12
1!14
#140
1!7
1!6
1!2
1!1
#150
1!9
1!4
1!16
#160
1!10
1!3
1!5
1!8
1!11
#170
1!16
1!2
1!1
#180
1!4
1!16
1!15
1!13
1!12
1!14
#190
1!3
1!5
1!7
1!6
1!11
#200
1!9
1!16
1!15
1!12
#210
1!10
1!8
#220
1!16
1!2
1!1
1!13
1!14
#230
1!4
1!16
#240
1!3
1!5
1!16
1!7
1!6
1!11
#250
1!9
1!2
1!1
#260
1!16
#270
1!10
1!4
1!16
1!8
1!15
1!13
1!12
1!14
#280
1!3
1!5
1!16
1!7
1!6
1!11
#290
1!9
1!16
#300
1!10
1!16
1!8
1!2
1!15
1!1
1!13
1!12
1!14
#310
1!4
1!16
1!7
1!6
#320
1!9
#330
1!3
1!5
1!11
#340
1!10
1!8
1!2
1!1
#350
1!4
1!16
#360
1!16
1!15
1!13
1!12
1!14
#370
1!16
#380
1!16
#390
1!7
1!6
#400
1!9
1!3
1!5
1!16
1!11
#410
1!10
1!16
1!8
#420
1!2
1!1
#430
1!16
1!15
1!13
1!12
1!14
#440
1!4
#450
1!3
1!5
1!11
#460
1!16
1!7
1!6
1!2
1!1
#470
1!16
1!15
1!13
1!12
1!14
#480
1!9
1!16
#490
1!4
1!16
#500
1!16
#510
1!10
1!8
#520
1!16
1!7
1!6
#530
1!3
1!5
1!16
1!11
#540
1!9
1!2
1!15
1!1
1!12
#550
1!10
1!16
1!8
#560
1!4
#570
1!3
1!5
1!16
1!13
1!11
1!14
#580
1!16
1!2
1!1
#590
1!4
#600
1!7
1!6
#610
1!9
1!15
1!12
#620
1!3
1!5
1!11
#630
1!16
1!2
1!1
1!13
1!14
#640
1!16
1!13
1!14
#650
1!10
1!4
1!8
#660
1!16
#670
1!16
1!7
1!6
#680
1!9
1!16
1!15
1!12
#690
1!16
#700
1!10
1!3
1!5
1!8
1!11
#710
1!7
1!6
#720
1!16
1!15
1!12
#730
1!9
1!16
1!2
1!1
1!13
1!14
#740
1!10
1!4
1!16
1!8
#750
1!3
1!5
1!11
#760
1!16
1!7
1!6
#770
1!16
1!2
1!15
1!1
1!13
1!12
1!14
#780
1!4
1!16
#790
1!9
#800
1!16
#810
1!10
1!8
#820
1!16
1!7
1!6
#830
1!9
#840
1!3
1!5
1!11
#850
1!16
1!15
1!12
#860
1!10
1!16
1!8
1!2
1!1
1!13
1!14
#870
1!7
1!6
#880
1!4
1!16
#890
1!9
1!3
1!5
1!16
1!11
#900
1!15
1!12
#910
1!2
1!1
#920
1!4
1!16
#930
1!10
1!8
#940
1!3
1!5
1!16
1!13
1!11
1!14
#950
1!7
1!6
1!2
1!1
#960
1!9
1!16
1!15
1!12
#970
1!10
1!16
1!8
1!13
1!14
#980
1!4
#990
1!16
1!7
1!6
#1000
z!1
z!2
z!3
z!4
z!5
z!6
z!7
z!8
z!9
z!10
z!11
z!12
z!13
z!14
z!15
z!16
